Library\Bee\artifacts\mvdfrm\UnityEditor.UI.ref.dll_4C98D3F7040CD4F5.mvfrm
Library\Bee\artifacts\mvdfrm\UnityEngine.UI.ref.dll_08FEAA520A2EFD60.mvfrm
Library\Bee\artifacts\mvdfrm\Unity.Burst.Cecil.dll_5BFAF423AF04B523.mvfrm
Library\Bee\artifacts\mvdfrm\Unity.Burst.Cecil.Mdb.dll_D0913CFAFA68A920.mvfrm
Library\Bee\artifacts\mvdfrm\Unity.Burst.Cecil.Pdb.dll_E7E3B56A791DAAA3.mvfrm
Library\Bee\artifacts\mvdfrm\Unity.Burst.Cecil.Rocks.dll_12CE6FA0D6D62D23.mvfrm
Library\Bee\artifacts\mvdfrm\Unity.Plastic.Antlr3.Runtime.dll_1DB2DE32819D4BF4.mvfrm
Library\Bee\artifacts\mvdfrm\Unity.Plastic.Newtonsoft.Json.dll_3FE3A1CDAE28A801.mvfrm
Library\Bee\artifacts\mvdfrm\Unity.VisualScripting.IonicZip.dll_3EA1E79F2B9E411E.mvfrm
Library\Bee\artifacts\mvdfrm\Unity.VisualScripting.YamlDotNet.dll_CF282777D524EABE.mvfrm
Library\Bee\artifacts\mvdfrm\Unity.VisualScripting.TextureAssets.dll_664650CB95F248B6.mvfrm
Library\Bee\artifacts\mvdfrm\Unity.VisualScripting.Antlr3.Runtime.dll_80954E5905EDFADD.mvfrm
Library\Bee\artifacts\mvdfrm\UnityEditor.Graphs.dll_B015CEFB5B68AF36.mvfrm
Library\Bee\artifacts\mvdfrm\UnityEditor.CoreModule.dll_0FAA27A588CC2904.mvfrm
Library\Bee\artifacts\mvdfrm\UnityEditor.DeviceSimulatorModule.dll_17406B7E3E5F0FFD.mvfrm
Library\Bee\artifacts\mvdfrm\UnityEditor.DiagnosticsModule.dll_A62048ED13037B0B.mvfrm
Library\Bee\artifacts\mvdfrm\UnityEditor.dll_EFDE3C14E08AB151.mvfrm
Library\Bee\artifacts\mvdfrm\UnityEditor.GraphViewModule.dll_DA77E17B2DDB2B82.mvfrm
Library\Bee\artifacts\mvdfrm\UnityEditor.PackageManagerUIModule.dll_AF8F7E9C9A0A7960.mvfrm
Library\Bee\artifacts\mvdfrm\UnityEditor.QuickSearchModule.dll_312FC9FA6BDA7764.mvfrm
Library\Bee\artifacts\mvdfrm\UnityEditor.SceneTemplateModule.dll_B55E8DF5CEC44A65.mvfrm
Library\Bee\artifacts\mvdfrm\UnityEditor.TextCoreFontEngineModule.dll_BB33A0D9E53F0602.mvfrm
Library\Bee\artifacts\mvdfrm\UnityEditor.TextCoreTextEngineModule.dll_031BD74B74C2BF20.mvfrm
Library\Bee\artifacts\mvdfrm\UnityEditor.UIBuilderModule.dll_2F008E97A093A4B6.mvfrm
Library\Bee\artifacts\mvdfrm\UnityEditor.UIElementsModule.dll_EC07816039DBC1C0.mvfrm
Library\Bee\artifacts\mvdfrm\UnityEditor.UIElementsSamplesModule.dll_4FDD19162D60BBAD.mvfrm
Library\Bee\artifacts\mvdfrm\UnityEditor.UIServiceModule.dll_67F29FFA89CAF4D0.mvfrm
Library\Bee\artifacts\mvdfrm\UnityEditor.UnityConnectModule.dll_7AEF5256EAC159BA.mvfrm
Library\Bee\artifacts\mvdfrm\UnityEngine.AccessibilityModule.dll_E803F98CCF3A7202.mvfrm
Library\Bee\artifacts\mvdfrm\UnityEngine.AIModule.dll_1C295716EEB4FED8.mvfrm
Library\Bee\artifacts\mvdfrm\UnityEngine.AndroidJNIModule.dll_6A506A3382FB3096.mvfrm
Library\Bee\artifacts\mvdfrm\UnityEngine.AnimationModule.dll_A8FD5DA408380028.mvfrm
Library\Bee\artifacts\mvdfrm\UnityEngine.ARModule.dll_D59C1C1A4BD25DA1.mvfrm
Library\Bee\artifacts\mvdfrm\UnityEngine.AssetBundleModule.dll_7518FCEBCE412C56.mvfrm
Library\Bee\artifacts\mvdfrm\UnityEngine.AudioModule.dll_BF39438CD319171A.mvfrm
Library\Bee\artifacts\mvdfrm\UnityEngine.ClothModule.dll_2621A087AD35F5FE.mvfrm
Library\Bee\artifacts\mvdfrm\UnityEngine.ClusterInputModule.dll_FA8BC76C9C492C80.mvfrm
Library\Bee\artifacts\mvdfrm\UnityEngine.ClusterRendererModule.dll_1CED2DEFAE1A1D81.mvfrm
Library\Bee\artifacts\mvdfrm\UnityEngine.CoreModule.dll_32CAFAF830D1942F.mvfrm
Library\Bee\artifacts\mvdfrm\UnityEngine.CrashReportingModule.dll_242D17C7A05D1B27.mvfrm
Library\Bee\artifacts\mvdfrm\UnityEngine.DirectorModule.dll_555C6AF7ED19F60C.mvfrm
Library\Bee\artifacts\mvdfrm\UnityEngine.dll_228282ED3EFE3E36.mvfrm
Library\Bee\artifacts\mvdfrm\UnityEngine.DSPGraphModule.dll_5AADCC615F7AC72D.mvfrm
Library\Bee\artifacts\mvdfrm\UnityEngine.GameCenterModule.dll_949DB44E493C2187.mvfrm
Library\Bee\artifacts\mvdfrm\UnityEngine.GIModule.dll_B465A0248A63E6F2.mvfrm
Library\Bee\artifacts\mvdfrm\UnityEngine.GridModule.dll_103C16E649262A26.mvfrm
Library\Bee\artifacts\mvdfrm\UnityEngine.HotReloadModule.dll_2A461BA9E36B1BAA.mvfrm
Library\Bee\artifacts\mvdfrm\UnityEngine.ImageConversionModule.dll_88DF2BA0303ED575.mvfrm
Library\Bee\artifacts\mvdfrm\UnityEngine.IMGUIModule.dll_F798E2F3994AAAFB.mvfrm
Library\Bee\artifacts\mvdfrm\UnityEngine.InputLegacyModule.dll_065E180A6632E247.mvfrm
Library\Bee\artifacts\mvdfrm\UnityEngine.InputModule.dll_25AF0B3D49513BBE.mvfrm
Library\Bee\artifacts\mvdfrm\UnityEngine.JSONSerializeModule.dll_481B82C8CE75D28C.mvfrm
Library\Bee\artifacts\mvdfrm\UnityEngine.LocalizationModule.dll_38D891BF33C51F79.mvfrm
Library\Bee\artifacts\mvdfrm\UnityEngine.ParticleSystemModule.dll_773F61140E6EA6B5.mvfrm
Library\Bee\artifacts\mvdfrm\UnityEngine.PerformanceReportingModule.dll_D03622C29F1B17EE.mvfrm
Library\Bee\artifacts\mvdfrm\UnityEngine.Physics2DModule.dll_F5A34D94A934F7BD.mvfrm
Library\Bee\artifacts\mvdfrm\UnityEngine.PhysicsModule.dll_91E547CB8790092B.mvfrm
Library\Bee\artifacts\mvdfrm\UnityEngine.ProfilerModule.dll_87A2A42E86737D19.mvfrm
Library\Bee\artifacts\mvdfrm\UnityEngine.RuntimeInitializeOnLoadManagerInitializerModule.dll_F467B04C0CC16286.mvfrm
Library\Bee\artifacts\mvdfrm\UnityEngine.ScreenCaptureModule.dll_6203304DE2E1FEEE.mvfrm
Library\Bee\artifacts\mvdfrm\UnityEngine.SharedInternalsModule.dll_0CF06A75A76CD0C5.mvfrm
Library\Bee\artifacts\mvdfrm\UnityEngine.SpriteMaskModule.dll_7DCA26DE6AABB701.mvfrm
Library\Bee\artifacts\mvdfrm\UnityEngine.SpriteShapeModule.dll_8E7A2A4683E36460.mvfrm
Library\Bee\artifacts\mvdfrm\UnityEngine.StreamingModule.dll_5D924AF457BFB766.mvfrm
Library\Bee\artifacts\mvdfrm\UnityEngine.SubstanceModule.dll_3A3D5F3DA312B574.mvfrm
Library\Bee\artifacts\mvdfrm\UnityEngine.SubsystemsModule.dll_E8778D4038F39F14.mvfrm
Library\Bee\artifacts\mvdfrm\UnityEngine.TerrainModule.dll_AC2BC33A5D4E5219.mvfrm
Library\Bee\artifacts\mvdfrm\UnityEngine.TerrainPhysicsModule.dll_77BA09E727B1A142.mvfrm
Library\Bee\artifacts\mvdfrm\UnityEngine.TextCoreFontEngineModule.dll_39931C2CF83CC4CD.mvfrm
Library\Bee\artifacts\mvdfrm\UnityEngine.TextCoreTextEngineModule.dll_817B529E87C07DEB.mvfrm
Library\Bee\artifacts\mvdfrm\UnityEngine.TextRenderingModule.dll_8B42A2589A197EE3.mvfrm
Library\Bee\artifacts\mvdfrm\UnityEngine.TilemapModule.dll_4B282ABB750B3322.mvfrm
Library\Bee\artifacts\mvdfrm\UnityEngine.TLSModule.dll_A56A2894D9CF973F.mvfrm
Library\Bee\artifacts\mvdfrm\UnityEngine.UIElementsModule.dll_ECB5EEA83C1FDB0B.mvfrm
Library\Bee\artifacts\mvdfrm\UnityEngine.UIElementsNativeModule.dll_FA0933320B82E982.mvfrm
Library\Bee\artifacts\mvdfrm\UnityEngine.UIModule.dll_179CF5444AFC0484.mvfrm
Library\Bee\artifacts\mvdfrm\UnityEngine.UmbraModule.dll_3A0DEFA5603FC28D.mvfrm
Library\Bee\artifacts\mvdfrm\UnityEngine.UNETModule.dll_C57142E17DE089A8.mvfrm
Library\Bee\artifacts\mvdfrm\UnityEngine.UnityAnalyticsCommonModule.dll_6B74E006B903B64C.mvfrm
Library\Bee\artifacts\mvdfrm\UnityEngine.UnityAnalyticsModule.dll_96DED1DDBA95F8B1.mvfrm
Library\Bee\artifacts\mvdfrm\UnityEngine.UnityConnectModule.dll_684ED665E5495A65.mvfrm
Library\Bee\artifacts\mvdfrm\UnityEngine.UnityCurlModule.dll_DC19FED5784BF215.mvfrm
Library\Bee\artifacts\mvdfrm\UnityEngine.UnityTestProtocolModule.dll_0B9FCF08875C1103.mvfrm
Library\Bee\artifacts\mvdfrm\UnityEngine.UnityWebRequestAssetBundleModule.dll_D4AB9AA627FBB842.mvfrm
Library\Bee\artifacts\mvdfrm\UnityEngine.UnityWebRequestAudioModule.dll_483276A12585E286.mvfrm
Library\Bee\artifacts\mvdfrm\UnityEngine.UnityWebRequestModule.dll_9A7E334A3B336FF4.mvfrm
Library\Bee\artifacts\mvdfrm\UnityEngine.UnityWebRequestTextureModule.dll_B56E4395C1AEA51B.mvfrm
Library\Bee\artifacts\mvdfrm\UnityEngine.UnityWebRequestWWWModule.dll_4C3D97FA77803A57.mvfrm
Library\Bee\artifacts\mvdfrm\UnityEngine.VehiclesModule.dll_CD1F64776743C5A7.mvfrm
Library\Bee\artifacts\mvdfrm\UnityEngine.VFXModule.dll_2648C103B03D00AC.mvfrm
Library\Bee\artifacts\mvdfrm\UnityEngine.VideoModule.dll_E442C7F795AB32BF.mvfrm
Library\Bee\artifacts\mvdfrm\UnityEngine.VirtualTexturingModule.dll_1E95E7A0E4316A0D.mvfrm
Library\Bee\artifacts\mvdfrm\UnityEngine.VRModule.dll_6A6F1BC9ECB689FC.mvfrm
Library\Bee\artifacts\mvdfrm\UnityEngine.WindModule.dll_A919D620C2081298.mvfrm
Library\Bee\artifacts\mvdfrm\UnityEngine.XRModule.dll_9D2DDECE75F0D75A.mvfrm
Library\Bee\artifacts\mvdfrm\Unity.Android.Gradle.dll_104C902EF3ACF4EC.mvfrm
Library\Bee\artifacts\mvdfrm\Unity.Android.Types.dll_9FD3D567BE169010.mvfrm
Library\Bee\artifacts\mvdfrm\UnityEditor.Android.Extensions.dll_DFE23625BD5AECAC.mvfrm
Library\Bee\artifacts\mvdfrm\UnityEditor.WebGL.Extensions.dll_F3F020CC010FAFEC.mvfrm
Library\Bee\artifacts\mvdfrm\UnityEditor.WindowsStandalone.Extensions.dll_7D5A275845BCBCDC.mvfrm