Library\Bee\artifacts\mvdfrm\Unity.Mathematics.ref.dll_14D1A32168A0AD59.mvfrm
Library\Bee\artifacts\mvdfrm\UnityEngine.UI.ref.dll_FAE6DBEA21006BE5.mvfrm
Library\Bee\artifacts\mvdfrm\Unity.VisualScripting.Antlr3.Runtime.dll_80954E5905EDFADD.mvfrm
Library\Bee\artifacts\mvdfrm\UnityEngine.AccessibilityModule.dll_1890C338FFB9BBDC.mvfrm
Library\Bee\artifacts\mvdfrm\UnityEngine.AIModule.dll_D1A1BD0953E7CDDE.mvfrm
Library\Bee\artifacts\mvdfrm\UnityEngine.AndroidJNIModule.dll_D60B7F7C47FF829C.mvfrm
Library\Bee\artifacts\mvdfrm\UnityEngine.AnimationModule.dll_5F37417F75724382.mvfrm
Library\Bee\artifacts\mvdfrm\UnityEngine.ARModule.dll_8B14820CB1052CA7.mvfrm
Library\Bee\artifacts\mvdfrm\UnityEngine.AssetBundleModule.dll_BEE8FA6591E6BEF0.mvfrm
Library\Bee\artifacts\mvdfrm\UnityEngine.AudioModule.dll_BF3680780573F3F4.mvfrm
Library\Bee\artifacts\mvdfrm\UnityEngine.ClothModule.dll_261EDD72DF90D2D8.mvfrm
Library\Bee\artifacts\mvdfrm\UnityEngine.ClusterInputModule.dll_96648279A8449B46.mvfrm
Library\Bee\artifacts\mvdfrm\UnityEngine.ClusterRendererModule.dll_FF5ECFDAF53E869B.mvfrm
Library\Bee\artifacts\mvdfrm\UnityEngine.CoreModule.dll_1FAB3CE8DF5D1FF5.mvfrm
Library\Bee\artifacts\mvdfrm\UnityEngine.CrashReportingModule.dll_0AD1182B7CA6BEAD.mvfrm
Library\Bee\artifacts\mvdfrm\UnityEngine.DirectorModule.dll_4408D401BC8B4352.mvfrm
Library\Bee\artifacts\mvdfrm\UnityEngine.dll_8B6AF8899D0CA790.mvfrm
Library\Bee\artifacts\mvdfrm\UnityEngine.DSPGraphModule.dll_495A356B2EEC1473.mvfrm
Library\Bee\artifacts\mvdfrm\UnityEngine.GameCenterModule.dll_0058C9970E40738D.mvfrm
Library\Bee\artifacts\mvdfrm\UnityEngine.GIModule.dll_69DE0616EF96B5F8.mvfrm
Library\Bee\artifacts\mvdfrm\UnityEngine.GridModule.dll_FD1C58D6F7B1B5EC.mvfrm
Library\Bee\artifacts\mvdfrm\UnityEngine.HotReloadModule.dll_E07FFF8550A55F04.mvfrm
Library\Bee\artifacts\mvdfrm\UnityEngine.ImageConversionModule.dll_6B50CD8B77633E8F.mvfrm
Library\Bee\artifacts\mvdfrm\UnityEngine.IMGUIModule.dll_F7961FDECBA587D5.mvfrm
Library\Bee\artifacts\mvdfrm\UnityEngine.InputLegacyModule.dll_502E158429D874E1.mvfrm
Library\Bee\artifacts\mvdfrm\UnityEngine.InputModule.dll_25AC48287BAC1898.mvfrm
Library\Bee\artifacts\mvdfrm\UnityEngine.JSONSerializeModule.dll_78A84C74FEF51C66.mvfrm
Library\Bee\artifacts\mvdfrm\UnityEngine.LocalizationModule.dll_D4B14CCC3FC08E3F.mvfrm
Library\Bee\artifacts\mvdfrm\UnityEngine.ParticleSystemModule.dll_5DE36177EAB84A3B.mvfrm
Library\Bee\artifacts\mvdfrm\UnityEngine.PerformanceReportingModule.dll_02EB6A0C9577E9B4.mvfrm
Library\Bee\artifacts\mvdfrm\UnityEngine.Physics2DModule.dll_ABDD3170166F3B17.mvfrm
Library\Bee\artifacts\mvdfrm\UnityEngine.PhysicsModule.dll_9CAC5A266B106545.mvfrm
Library\Bee\artifacts\mvdfrm\UnityEngine.ProfilerModule.dll_764F0D3855E4CA5F.mvfrm
Library\Bee\artifacts\mvdfrm\UnityEngine.RuntimeInitializeOnLoadManagerInitializerModule.dll_505DF2811D6159E0.mvfrm
Library\Bee\artifacts\mvdfrm\UnityEngine.ScreenCaptureModule.dll_928FF9FA136148C8.mvfrm
Library\Bee\artifacts\mvdfrm\UnityEngine.SharedInternalsModule.dll_EF620C60EE9139DF.mvfrm
Library\Bee\artifacts\mvdfrm\UnityEngine.SpriteMaskModule.dll_E9853C272FB00907.mvfrm
Library\Bee\artifacts\mvdfrm\UnityEngine.SpriteShapeModule.dll_D84A27C04788F6FA.mvfrm
Library\Bee\artifacts\mvdfrm\UnityEngine.StreamingModule.dll_13CC2ECFC4F9FAC0.mvfrm
Library\Bee\artifacts\mvdfrm\UnityEngine.SubstanceModule.dll_F0774319104CF8CE.mvfrm
Library\Bee\artifacts\mvdfrm\UnityEngine.SubsystemsModule.dll_5432A288FDF7F11A.mvfrm
Library\Bee\artifacts\mvdfrm\UnityEngine.TerrainModule.dll_B6F2D59540CEAE33.mvfrm
Library\Bee\artifacts\mvdfrm\UnityEngine.TerrainPhysicsModule.dll_5E5E0A4B03FB44C8.mvfrm
Library\Bee\artifacts\mvdfrm\UnityEngine.TextCoreFontEngineModule.dll_E3116F853AD419D3.mvfrm
Library\Bee\artifacts\mvdfrm\UnityEngine.TextCoreTextEngineModule.dll_2AF9A5F6CA57D2F1.mvfrm
Library\Bee\artifacts\mvdfrm\UnityEngine.TextRenderingModule.dll_BBCF6C04CA98C8BD.mvfrm
Library\Bee\artifacts\mvdfrm\UnityEngine.TilemapModule.dll_55EF3D16588B8F3C.mvfrm
Library\Bee\artifacts\mvdfrm\UnityEngine.TLSModule.dll_D215AD7B211C5CD9.mvfrm
Library\Bee\artifacts\mvdfrm\UnityEngine.UIElementsModule.dll_587103F101242D11.mvfrm
Library\Bee\artifacts\mvdfrm\UnityEngine.UIElementsNativeModule.dll_4F2F0BF845C4D9C8.mvfrm
Library\Bee\artifacts\mvdfrm\UnityEngine.UIModule.dll_CD155B36B02ED38A.mvfrm
Library\Bee\artifacts\mvdfrm\UnityEngine.UmbraModule.dll_3A0B2C90929A9F67.mvfrm
Library\Bee\artifacts\mvdfrm\UnityEngine.UNETModule.dll_B25184D22C6C156E.mvfrm
Library\Bee\artifacts\mvdfrm\UnityEngine.UnityAnalyticsCommonModule.dll_9E2A2750AF608812.mvfrm
Library\Bee\artifacts\mvdfrm\UnityEngine.UnityAnalyticsModule.dll_7D82D24196DF9C37.mvfrm
Library\Bee\artifacts\mvdfrm\UnityEngine.UnityConnectModule.dll_04279172F144C92B.mvfrm
Library\Bee\artifacts\mvdfrm\UnityEngine.UnityCurlModule.dll_9253E2B0E586356F.mvfrm
Library\Bee\artifacts\mvdfrm\UnityEngine.UnityTestProtocolModule.dll_58FBB9B9DFEE015D.mvfrm
Library\Bee\artifacts\mvdfrm\UnityEngine.UnityWebRequestAssetBundleModule.dll_E3D9AEF066A79048.mvfrm
Library\Bee\artifacts\mvdfrm\UnityEngine.UnityWebRequestAudioModule.dll_7AE7BDEB1BE2B44C.mvfrm
Library\Bee\artifacts\mvdfrm\UnityEngine.UnityWebRequestModule.dll_7CEFD5358257D90E.mvfrm
Library\Bee\artifacts\mvdfrm\UnityEngine.UnityWebRequestTextureModule.dll_38EA5D1F48B40BA1.mvfrm
Library\Bee\artifacts\mvdfrm\UnityEngine.UnityWebRequestWWWModule.dll_F5BBEB52BA178F5D.mvfrm
Library\Bee\artifacts\mvdfrm\UnityEngine.VehiclesModule.dll_BBCBCD8136B512ED.mvfrm
Library\Bee\artifacts\mvdfrm\UnityEngine.VFXModule.dll_52F445E9F789C646.mvfrm
Library\Bee\artifacts\mvdfrm\UnityEngine.VideoModule.dll_E44004E2C8060F99.mvfrm
Library\Bee\artifacts\mvdfrm\UnityEngine.VirtualTexturingModule.dll_73BBC0671E735A53.mvfrm
Library\Bee\artifacts\mvdfrm\UnityEngine.VRModule.dll_1FE781BC51E95902.mvfrm
Library\Bee\artifacts\mvdfrm\UnityEngine.WindModule.dll_95FA181170939E5E.mvfrm
Library\Bee\artifacts\mvdfrm\UnityEngine.XRModule.dll_52A644C0DB23A660.mvfrm